R for Data Science Solution Set
…
dep_time dep_delay arr_time arr_delay

1 517 2.00 830 11.0

2 533 4.00 850 20.0

3 542 2.00 923 33.0

4 544 -1.00 1004 -18.0

5 554 -6.00 812 -25.0

6 554 -4.00 740 12.0

# A tibble: 336,776 x 4

dep_time dep_delay arr_time arr_delay

1 517 2.00 830 11.0

2 533 4.00 850 20.0

3 542 2.00 923 33.0

4 544 -1.00 1004 -18.0

5 554 -6.00 812 -25.0

6 554 -4.00 740 12.0

7 555 -5.00 913 19.0

8 557 -3.00 709 -14.0

9 557 -3.00 838 - 8.00

10 558 -2.00 753 8.00

#  with 336,766 more rows
…
1 517

2 533

3 542

4 544

5 554

6 554

Problem 3

# A tibble: 336,776 x 5

year month day dep_delay arr_delay

1 2013 1 1 2.00 11.0

2 2013 1 1 4.00 20.0

3 2013 1 1 2.00 33.0

4 2013 1 1 -1.00 -18.0

5 2013 1 1 -6.00 -25.0

6 2013 1 1 -4.00 12.0

7 2013 1 1 -5.00 19.0

8 2013 1 1 -3.00 -14.0

9 2013 1 1 -3.00 - 8.00

10 2013 1 1 -2.00 8.00

#  with 336,766 more rows
…
[1] 2 4 6 5 7 9 8 10 12 11

[1] 2 4 6 5 7 9 8 10 12 11 13 15

Problem 6

[1] 0.7071068

[1] 0.7071068

5.6 - Grouped summaries with summarise()

Problem 1

# A tibble: 21 x 3

flight fifteen_early fifteen_late

1 107 0.500 0.500

2 2072 0.500 0.500

3 2366 0.500 0.500

4 2500 0.500 0.500

5 2552 0.500 0.500

6 3495 0.500 0.500

7 3505 0.500 0.500

8 3518 0.500 0.500

9 3544 0.500 0.500

10 3651 0.500 0.500

#  with 11 more rows
…
flight thirty_early thirty_late

1 3651 0.500 0.500

2 3916 0.500 0.500

3 3951 0.500 0.500

# A tibble: 0 x 3

#  with 3 variables: flight , on_time , late 

Problem 2

# A tibble: 104 x 2

dest n

1 ABQ 254

2 ACK 264

3 ALB 418

4 ANC 8

5 ATL 16837

6 AUS 2411

7 AVL 261

8 BDL 412

9 BGR 358

10 BHM 269

#  with 94 more rows

# A tibble: 104 x 2

dest n

1 ABQ 254

2 ACK 264

3 ALB 418

4 ANC 8

5 ATL 16837

6 AUS 2411

7 AVL 261

8 BDL 412

9 BGR 358

10 BHM 269

#  with 94 more rows

# A tibble: 4,037 x 2

tailnum n

1 D942DN 3418

2 N0EGMQ 239143

3 N10156 109664

4 N102UW 25722

5 N103US 24619

6 N104UW 24616

7 N10575 139903

8 N105UW 23618

9 N107US 21677

10 N108UW 32070

#  with 4,027 more rows

# A tibble: 4,037 x 2

tailnum n

1 D942DN 3418

2 N0EGMQ 239143

3 N10156 109664

4 N102UW 25722

5 N103US 24619

6 N104UW 24616

7 N10575 139903

8 N105UW 23618

9 N107US 21677

10 N108UW 32070

#  with 4,027 more rows
…
[1] 2

Chapter 10 - Tibbles

Placeholder

10.5 - Exercises

Problem 1

[1] FALSE

[1] TRUE

# A tibble: 53,940 x 10

carat cut color clarity depth table price x y z

1 0.230 Ideal E SI2 61.5 55.0 326 3.95 3.98 2.43

2 0.210 Premium E SI1 59.8 61.0 326 3.89 3.84 2.31

3 0.230 Good E VS1 56.9 65.0 327 4.05 4.07 2.31

4 0.290 Premium I VS2 62.4 58.0 334 4.20 4.23 2.63

5 0.310 Good J SI2 63.3 58.0 335 4.34 4.35 2.75

6 0.240 Very Good J VVS2 62.8 57.0 336 3.94 3.96 2.48

7 0.240 Very Good I VVS1 62.3 57.0 336 3.95 3.98 2.47

8 0.260 Very Good H SI1 61.9 55.0 337 4.07 4.11 2.53

9 0.220 Fair E VS2 65.1 61.0 337 3.87 3.78 2.49

10 0.230 Very Good H VS1 59.4 61.0 338 4.00 4.05 2.39

#  with 53,930 more rows
…
[1] TRUE

abc xyz

1 1 a

# A tibble: 1 x 2

abc xyz

1 1.00 a

Problem 3

# A tibble: 32 x 1

mpg

1 21.0

2 21.0

3 22.8

4 21.4

5 18.7

6 18.1

7 14.3

8 24.4

9 22.8

10 19.2

#  with 22 more rows
…
13.2 - nycflights13

Problem 1

Problem 2

Problem 3

Problem 4

13.3 - Keys

Problem 1

# A tibble: 336,776 x 20

year month day dep_time sched_dep_time dep_delay arr_time

1 2013 1 1 517 515 2.00 830

2 2013 1 1 533 529 4.00 850

3 2013 1 1 542 540 2.00 923

4 2013 1 1 544 545 -1.00 1004

5 2013 1 1 554 600 -6.00 812

6 2013 1 1 554 558 -4.00 740

7 2013 1 1 555 600 -5.00 913

8 2013 1 1 557 600 -3.00 709

9 2013 1 1 557 600 -3.00 838

10 2013 1 1 558 600 -2.00 753

#  with 336,766 more rows, and 13 more variables: sched_arr_time ,
…
The following object is masked from package:dplyr:

storms

# A tibble: 0 x 5

#  with 5 variables: lat , long , year , month ,

# n 

# A tibble: 0 x 2

#  with 2 variables: id , n 

# A tibble: 143 x 11

carat cut color clarity depth table price x y z n

1 0.300 Good J VS1 63.4 57.0 394 4.23 4.26 2.69 2

2 0.300 Very Good G VS2 63.0 55.0 526 4.29 4.31 2.71 2

3 0.300 Very Good J VS1 63.4 57.0 506 4.26 4.23 2.69 2

4 0.300 Premium D SI1 62.2 58.0 709 4.31 4.28 2.67 2

5 0.300 Ideal G VS2 63.0 55.0 675 4.31 4.29 2.71 2

6 0.300 Ideal G IF 62.1 55.0 863 4.32 4.35 2.69 2

7 0.300 Ideal H SI1 62.2 57.0 450 4.26 4.29 2.66 2

8 0.300 Ideal H SI1 62.2 57.0 450 4.27 4.28 2.66 2

9 0.310 Good D SI1 63.5 56.0 571 4.29 4.31 2.73 2

10 0.310 Very Good D SI1 63.5 56.0 732 4.31 4.29 2.73 2

#  with 133 more rows
…
13.4 - Mutating joins

Problem 1

Attaching package: maps

The following object is masked from package:purrr:

map

Warning: Removed 5 rows containing missing values (geom_point).

Problem 2

# A tibble: 336,776 x 23

year month day dep_time sched_dep_time dep_delay arr_time

1 2013 1 1 517 515 2.00 830

2 2013 1 1 533 529 4.00 850

3 2013 1 1 542 540 2.00 923

4 2013 1 1 544 545 -1.00 1004

5 2013 1 1 554 600 -6.00 812

6 2013 1 1 554 558 -4.00 740

7 2013 1 1 555 600 -5.00 913

8 2013 1 1 557 600 -3.00 709

9 2013 1 1 557 600 -3.00 838

10 2013 1 1 558 600 -2.00 753

#  with 336,766 more rows, and 16 more variables: sched_arr_time ,
…
10 WN 38

# A tibble: 3 x 2

origin n

1 EWR 5908

2 JFK 17137

3 LGA 29561

Problem 2

# A tibble: 230,902 x 19

year month day dep_time sched_dep_time dep_delay arr_time

1 2013 1 1 517 515 2.00 830

2 2013 1 1 533 529 4.00 850

3 2013 1 1 544 545 -1.00 1004

4 2013 1 1 554 558 -4.00 740

5 2013 1 1 555 600 -5.00 913

6 2013 1 1 557 600 -3.00 709

7 2013 1 1 557 600 -3.00 838

8 2013 1 1 558 600 -2.00 849

9 2013 1 1 558 600 -2.00 853

10 2013 1 1 558 600 -2.00 923

#  with 230,892 more rows, and 12 more variables: sched_arr_time ,

# arr_delay , carrier , flight , tailnum ,

# origin , dest , air_time , distance , hour ,

# minute , time_hour 

Problem 3

Joining, by = c(make, model)

# A tibble: 14,531 x 12

id make model year class trans drive cyl displ fuel hwy cty

1 1833 Acura Inte 1986 Subc Auto Fron 4 1.60 Regu 28 22

2 1834 Acura Inte 1986 Subc Manu Fron 4 1.60 Regu 28 23

3 3037 Acura Inte 1987 Subc Auto Fron 4 1.60 Regu 28 22

4 3038 Acura Inte 1987 Subc Manu Fron 4 1.60 Regu 28 23

5 4183 Acura Inte 1988 Subc Auto Fron 4 1.60 Regu 27 22

6 4184 Acura Inte 1988 Subc Manu Fron 4 1.60 Regu 28 23

7 5303 Acura Inte 1989 Subc Auto Fron 4 1.60 Regu 27 22

8 5304 Acura Inte 1989 Subc Manu Fron 4 1.60 Regu 28 23

9 6442 Acura Inte 1990 Subc Auto Fron 4 1.80 Regu 24 20

10 6443 Acura Inte 1990 Subc Manu Fron 4 1.80 Regu 26 21

#  with 14,521 more rows
…
value letters vowels proportion

1 a 1 1 1.00

14.4.3 - Extract Matches

Problem 1

Problem 2

14.4.4 Grouped matches

Problem 1

# A tibble: 46 x 3

sentence number word

1 Rice is often served in round bowls. ten served

2 Four hours of steady work faced us. Four hours

3 Two blue fish swam in the tank. Two blue

4 Lift the square stone over the fence. one over

5 The rope will bind the seven books at once. seven books

6 The two met while playing on the sand. two met

7 There are more than two factors here. two factors

8 He lay prone and hardly moved a limb. one and

9 Ten pins were set in order. Ten pins

10 Type out three lists of orders. three lists

#  with 36 more rows
…
# A tibble: 1 x 2

relig n

1 Protestant 10846

# A tibble: 1 x 2

partyid n

1 Independent 4119

Problem 3

# A tibble: 47 x 3

# Groups: denom [30]

denom relig n

1 No answer No answer 93

2 No answer Christian 2

3 No answer Protestant 22

4 Dont know Christian 11

5 Dont know Protestant 41

6 No denomination Christian 452

7 No denomination Other 7

8 No denomination Protestant 1224

9 Other Protestant 2534

10 Episcopal Protestant 397

#  with 37 more rows
…
[1] 2015-03-07

[1] 2017-06-06

[1] 2015-08-19 2015-07-01

[1] 2014-12-30

16.3 - Date-time components

Problem 1

Problem 2

# A tibble: 1,205 x 3

sched_dep_time dep_time dep_time2

1 2013-01-01 18:35:00 2013-01-01 08:48:00 2013-01-02 08:48:00

2 2013-01-02 23:59:00 2013-01-02 00:42:00 2013-01-03 00:42:00

3 2013-01-02 22:50:00 2013-01-02 01:26:00 2013-01-03 01:26:00

4 2013-01-03 23:59:00 2013-01-03 00:32:00 2013-01-04 00:32:00

5 2013-01-03 21:45:00 2013-01-03 00:50:00 2013-01-04 00:50:00

6 2013-01-03 23:59:00 2013-01-03 02:35:00 2013-01-04 02:35:00

7 2013-01-04 23:59:00 2013-01-04 00:25:00 2013-01-05 00:25:00

8 2013-01-04 22:45:00 2013-01-04 01:06:00 2013-01-05 01:06:00

9 2013-01-05 23:59:00 2013-01-05 00:14:00 2013-01-06 00:14:00

10 2013-01-05 22:30:00 2013-01-05 00:37:00 2013-01-06 00:37:00

#  with 1,195 more rows

Problem 3

# A tibble: 328,063 x 5

origin dest air_time air_time_calc air_time_diff

1 EWR IAH 227 193 34.0

2 LGA IAH 227 197 30.0

3 JFK MIA 160 221 -61.0

4 JFK BQN 183 260 -77.0

5 LGA ATL 116 138 -22.0

6 EWR ORD 150 106 44.0

7 EWR FLL 158 198 -40.0

8 LGA IAD 53.0 72.0 -19.0

9 JFK MCO 140 161 -21.0

10 LGA ORD 138 115 23.0

#  with 328,053 more rows
…
[1] NA -5 0 NA NA

Problem 6

[1] NA

NA

20.5 - Recursive vectors (lists)

Problem 1

Problem 2

# A tibble: 32 x 1

mpg

1 21.0

2 21.0

3 22.8

4 21.4

5 18.7

6 18.1

7 14.3

8 24.4

9 22.8

10 19.2

#  with 22 more rows
…
Problem 4

Why might you want to look at a frequency polygon of absolute residuals? What are the pros and cons compared to looking at the raw residuals?

A frequency polygon of absolute residuals is useful for exploring the magnitudes of errors from a model. A problem is that is can obscure real differences between residuals from above the fitted model and residuals below the fitted model.

23.4 Formulas and model families

What happens if you repeat the analysis of sim2 using a model without an intercept. What happens to the model equation? What happens to the predictions?

mod2 <- lm(y ~ x - 1, data = sim2)

model_matrix(y ~ x, data = sim2)

## # A tibble: 40 x 4
##    `(Intercept)`    xb    xc    xd
##            <dbl> <dbl> <dbl> <dbl>
##  1          1.00     0     0     0
##  2          1.00     0     0     0
##  3          1.00     0     0     0
##  4          1.00     0     0     0
##  5          1.00     0     0     0
##  6          1.00     0     0     0
##  7          1.00     0     0     0
##  8          1.00     0     0     0
##  9          1.00     0     0     0
## 10          1.00     0     0     0
## # ... with 30 more rows
…
