…
### Problem 3 {-}

Which `relig` does `denom` apply to? How can you find out without a table? How can you find out with a vizualization?

`denom` applies to Protestant. 


```r
gss_cat %>%
  group_by(denom) %>%
  count(relig)
```

```
## # A tibble: 47 x 3
## # Groups:   denom [30]
##    denom           relig          n
##    <fct>           <fct>      <int>
##  1 No answer       No answer     93
##  2 No answer       Christian      2
##  3 No answer       Protestant    22
##  4 Don't know      Christian     11
##  5 Don't know      Protestant    41
##  6 No denomination Christian    452
##  7 No denomination Other          7
##  8 No denomination Protestant  1224
##  9 Other           Protestant  2534
## 10 Episcopal       Protestant   397
## # ... with 37 more rows
```
…
