R for Data Science Solution Set
…
We know that some days of the year are “special”, and fewer people than usual fly on them. How might you represent that data as a data frame? What would be the primary keys of that table? How would it connect to the existing tables?

It would create a table of observations for days that are special that could relate to the flights table through day, month, and year.

13.3 - Keys

Problem 1

Add a surrogate key to flights.

flights %>%
  mutate(surrogate_key = row_number())

## # A tibble: 336,776 x 20
##     year month   day dep_time sched_dep_time dep_delay arr_time
##    <int> <int> <int>    <int>          <int>     <dbl>    <int>
##  1  2013     1     1      517            515      2.00      830
##  2  2013     1     1      533            529      4.00      850
##  3  2013     1     1      542            540      2.00      923
##  4  2013     1     1      544            545     -1.00     1004
##  5  2013     1     1      554            600     -6.00      812
##  6  2013     1     1      554            558     -4.00      740
##  7  2013     1     1      555            600     -5.00      913
##  8  2013     1     1      557            600     -3.00      709
##  9  2013     1     1      557            600     -3.00      838
## 10  2013     1     1      558            600     -2.00      753
## # ... with 336,766 more rows, and 13 more variables: sched_arr_time <int>,
## #   arr_delay <dbl>, carrier <chr>, flight <int>, tailnum <chr>,
## #   origin <chr>, dest <chr>, air_time <dbl>, distance <dbl>, hour <dbl>,
## #   minute <dbl>, time_hour <dttm>, surrogate_key <int>
…
## # A tibble: 0 x 2
## # ... with 2 variables: id <int>, n <int>

ggplot2::diamonds - none!

diamonds <- as_tibble(diamonds)

diamonds %>%
  count(carat, cut, color, clarity, depth, table, price, x, y, z) %>%
  filter(n > 1)

## # A tibble: 143 x 11
##    carat cut       color clarity depth table price     x     y     z     n
##    <dbl> <ord>     <ord> <ord>   <dbl> <dbl> <int> <dbl> <dbl> <dbl> <int>
##  1 0.300 Good      J     VS1      63.4  57.0   394  4.23  4.26  2.69     2
##  2 0.300 Very Good G     VS2      63.0  55.0   526  4.29  4.31  2.71     2
##  3 0.300 Very Good J     VS1      63.4  57.0   506  4.26  4.23  2.69     2
##  4 0.300 Premium   D     SI1      62.2  58.0   709  4.31  4.28  2.67     2
##  5 0.300 Ideal     G     VS2      63.0  55.0   675  4.31  4.29  2.71     2
##  6 0.300 Ideal     G     IF       62.1  55.0   863  4.32  4.35  2.69     2
##  7 0.300 Ideal     H     SI1      62.2  57.0   450  4.26  4.29  2.66     2
##  8 0.300 Ideal     H     SI1      62.2  57.0   450  4.27  4.28  2.66     2
##  9 0.310 Good      D     SI1      63.5  56.0   571  4.29  4.31  2.73     2
## 10 0.310 Very Good D     SI1      63.5  56.0   732  4.31  4.29  2.73     2
## # ... with 133 more rows
…
Problem 2

Add the location of the origin and destination (i.e. the lat and lon) to flights.

airports2 <- airports %>%
  select(faa, lat, lon)

flights %>%
  left_join(airports2, c("origin" = "faa")) %>%
  rename(origin_lat = lat, origin_lon = lon) %>%
  left_join(airports2, c("dest" = "faa")) %>%
  rename(dest_lat = lat, dest_lon = lon)

## # A tibble: 336,776 x 23
##     year month   day dep_time sched_dep_time dep_delay arr_time
##    <int> <int> <int>    <int>          <int>     <dbl>    <int>
##  1  2013     1     1      517            515      2.00      830
##  2  2013     1     1      533            529      4.00      850
##  3  2013     1     1      542            540      2.00      923
##  4  2013     1     1      544            545     -1.00     1004
##  5  2013     1     1      554            600     -6.00      812
##  6  2013     1     1      554            558     -4.00      740
##  7  2013     1     1      555            600     -5.00      913
##  8  2013     1     1      557            600     -3.00      709
##  9  2013     1     1      557            600     -3.00      838
## 10  2013     1     1      558            600     -2.00      753
## # ... with 336,766 more rows, and 16 more variables: sched_arr_time <int>,
## #   arr_delay <dbl>, carrier <chr>, flight <int>, tailnum <chr>,
## #   origin <chr>, dest <chr>, air_time <dbl>, distance <dbl>, hour <dbl>,
## #   minute <dbl>, time_hour <dttm>, origin_lat <dbl>, origin_lon <dbl>,
## #   dest_lat <dbl>, dest_lon <dbl>
…
Departures from LaGuardia (LGA), JFK, and Newark (EWR) account for 100 percent of the planes without tail numbers. American Airlines (AA) and Envoy Airline (MQ) account for 90 percent of the planes without tail numbers.

Problem 2

Filter flights to only show flights with planes that have flown at least 100 flights.

flights100 <- flights %>%
  group_by(tailnum) %>%
  count(tailnum) %>%
  filter(n >= 100)

semi_join(flights, flights100, "tailnum")

## # A tibble: 230,902 x 19
##     year month   day dep_time sched_dep_time dep_delay arr_time
##    <int> <int> <int>    <int>          <int>     <dbl>    <int>
##  1  2013     1     1      517            515      2.00      830
##  2  2013     1     1      533            529      4.00      850
##  3  2013     1     1      544            545     -1.00     1004
##  4  2013     1     1      554            558     -4.00      740
##  5  2013     1     1      555            600     -5.00      913
##  6  2013     1     1      557            600     -3.00      709
##  7  2013     1     1      557            600     -3.00      838
##  8  2013     1     1      558            600     -2.00      849
##  9  2013     1     1      558            600     -2.00      853
## 10  2013     1     1      558            600     -2.00      923
## # ... with 230,892 more rows, and 12 more variables: sched_arr_time <int>,
## #   arr_delay <dbl>, carrier <chr>, flight <int>, tailnum <chr>,
## #   origin <chr>, dest <chr>, air_time <dbl>, distance <dbl>, hour <dbl>,
## #   minute <dbl>, time_hour <dttm>

Problem 3

Combine fueleconomy::vehicles and fueleconomy::common to find only the records for the most common models.

library(fueleconomy)

semi_join(vehicles, common)

## Joining, by = c("make", "model")

## # A tibble: 14,531 x 12
##       id make  model  year class trans drive   cyl displ fuel    hwy   cty
##    <int> <chr> <chr> <int> <chr> <chr> <chr> <int> <dbl> <chr> <int> <int>
##  1  1833 Acura Inte…  1986 Subc… Auto… Fron…     4  1.60 Regu…    28    22
##  2  1834 Acura Inte…  1986 Subc… Manu… Fron…     4  1.60 Regu…    28    23
##  3  3037 Acura Inte…  1987 Subc… Auto… Fron…     4  1.60 Regu…    28    22
##  4  3038 Acura Inte…  1987 Subc… Manu… Fron…     4  1.60 Regu…    28    23
##  5  4183 Acura Inte…  1988 Subc… Auto… Fron…     4  1.60 Regu…    27    22
##  6  4184 Acura Inte…  1988 Subc… Manu… Fron…     4  1.60 Regu…    28    23
##  7  5303 Acura Inte…  1989 Subc… Auto… Fron…     4  1.60 Regu…    27    22
##  8  5304 Acura Inte…  1989 Subc… Manu… Fron…     4  1.60 Regu…    28    23
##  9  6442 Acura Inte…  1990 Subc… Auto… Fron…     4  1.80 Regu…    24    20
## 10  6443 Acura Inte…  1990 Subc… Manu… Fron…     4  1.80 Regu…    26    21
## # ... with 14,521 more rows
…
