R for Data Science Solution Set
…
Problem 2

Compare dep_time, sched_dep_time, and dep_delay. Are they consistent? Explain your findings.

dep_time, sched_dep_time, and dep_delay are mostly consistent. The only issue is when delays extend past midnight. The value for day doesnt increase for dep_time when a a flight is delayed beyond its scheduled day.

flights_dt %>%
  mutate(dep_time2 = sched_dep_time + dep_delay * 60) %>%
  filter(dep_time != dep_time2) %>%
  select(sched_dep_time, dep_time, dep_time2)

## # A tibble: 1,205 x 3
##    sched_dep_time      dep_time            dep_time2          
##    <dttm>              <dttm>              <dttm>             
##  1 2013-01-01 18:35:00 2013-01-01 08:48:00 2013-01-02 08:48:00
##  2 2013-01-02 23:59:00 2013-01-02 00:42:00 2013-01-03 00:42:00
##  3 2013-01-02 22:50:00 2013-01-02 01:26:00 2013-01-03 01:26:00
##  4 2013-01-03 23:59:00 2013-01-03 00:32:00 2013-01-04 00:32:00
##  5 2013-01-03 21:45:00 2013-01-03 00:50:00 2013-01-04 00:50:00
##  6 2013-01-03 23:59:00 2013-01-03 02:35:00 2013-01-04 02:35:00
##  7 2013-01-04 23:59:00 2013-01-04 00:25:00 2013-01-05 00:25:00
##  8 2013-01-04 22:45:00 2013-01-04 01:06:00 2013-01-05 01:06:00
##  9 2013-01-05 23:59:00 2013-01-05 00:14:00 2013-01-06 00:14:00
## 10 2013-01-05 22:30:00 2013-01-05 00:37:00 2013-01-06 00:37:00
## # ... with 1,195 more rows

Problem 3

Compare air_time with the duration between the departure and arrival. Explain your findings. (Hint: consider the location of the airport.)

TODO(aaron):

There is no way to explain my findings.

flights_dt %>%
  mutate(air_time_calc = as.numeric(arr_time - dep_time),
         air_time_diff = air_time - air_time_calc) %>%
  select(origin, dest, air_time, air_time_calc, air_time_diff)

## # A tibble: 328,063 x 5
##    origin dest  air_time air_time_calc air_time_diff
##    <chr>  <chr>    <dbl>         <dbl>         <dbl>
##  1 EWR    IAH        227           193            34
##  2 LGA    IAH        227           197            30
##  3 JFK    MIA        160           221           -61
##  4 JFK    BQN        183           260           -77
##  5 LGA    ATL        116           138           -22
##  6 EWR    ORD        150           106            44
##  7 EWR    FLL        158           198           -40
##  8 LGA    IAD         53            72           -19
##  9 JFK    MCO        140           161           -21
## 10 LGA    ORD        138           115            23
## # ... with 328,053 more rows
…
