R for Data Science Solution Set
…
Or this would be a good place to try the starts_with() function:

flights %>%
  select(starts_with("dep"), starts_with("arr"))

## # A tibble: 336,776 x 4
##    dep_time dep_delay arr_time arr_delay
##       <int>     <dbl>    <int>     <dbl>
##  1      517        2.      830       11.
##  2      533        4.      850       20.
##  3      542        2.      923       33.
##  4      544       -1.     1004      -18.
##  5      554       -6.      812      -25.
##  6      554       -4.      740       12.
##  7      555       -5.      913       19.
##  8      557       -3.      709      -14.
##  9      557       -3.      838       -8.
## 10      558       -2.      753        8.
## # ... with 336,766 more rows
…
Problem 3

What does the one_of() function do? Why might it be helpful in conjunction with this vector?

one_of() allows you select variables from within a character vector. We can pass vars to select everything from the vector:

vars <- c("year", "month", "day", "dep_delay", "arr_delay")

flights %>%
  select(one_of(vars))

## # A tibble: 336,776 x 5
##     year month   day dep_delay arr_delay
##    <int> <int> <int>     <dbl>     <dbl>
##  1  2013     1     1        2.       11.
##  2  2013     1     1        4.       20.
##  3  2013     1     1        2.       33.
##  4  2013     1     1       -1.      -18.
##  5  2013     1     1       -6.      -25.
##  6  2013     1     1       -4.       12.
##  7  2013     1     1       -5.       19.
##  8  2013     1     1       -3.      -14.
##  9  2013     1     1       -3.       -8.
## 10  2013     1     1       -2.        8.
## # ... with 336,766 more rows
…
Problem 1

Brainstorm at least 5 different ways to assess the typical delay characteristics of a group of flights. Consider the following scenarios:

A flight is 15 minutes early 50% of the time, and 15 minutes late 50% of the time.

flights %>%
  group_by(flight) %>%
  summarise(fifteen_early = mean(arr_delay <= -15, na.rm = TRUE),
            fifteen_late = mean(arr_delay >= 15, na.rm = TRUE)) %>%
  filter(fifteen_early == 0.50,
         fifteen_late == 0.50)

## # A tibble: 21 x 3
##    flight fifteen_early fifteen_late
##     <int>         <dbl>        <dbl>
##  1    107         0.500        0.500
##  2   2072         0.500        0.500
##  3   2366         0.500        0.500
##  4   2500         0.500        0.500
##  5   2552         0.500        0.500
##  6   3495         0.500        0.500
##  7   3505         0.500        0.500
##  8   3518         0.500        0.500
##  9   3544         0.500        0.500
## 10   3651         0.500        0.500
## # ... with 11 more rows
…
Problem 2

Come up with another approach that will give you the same output as not_cancelled %>% count(dest) and not_cancelled %>% count(tailnum, wt = distance) (without using count()).

First setup the not_cancelled data set.

not_cancelled <- flights %>% 
  filter(!is.na(dep_delay), !is.na(arr_delay))

The first chunk of code gives us the following output:

not_cancelled %>%
  count(dest)

## # A tibble: 104 x 2
##    dest      n
##    <chr> <int>
##  1 ABQ     254
##  2 ACK     264
##  3 ALB     418
##  4 ANC       8
##  5 ATL   16837
##  6 AUS    2411
##  7 AVL     261
##  8 BDL     412
##  9 BGR     358
## 10 BHM     269
## # ... with 94 more rows

We can replicate this without using count() by doing a group_by() on dest:

not_cancelled %>%
  group_by(dest) %>%
  summarise(n = n())

## # A tibble: 104 x 2
##    dest      n
##    <chr> <int>
##  1 ABQ     254
##  2 ACK     264
##  3 ALB     418
##  4 ANC       8
##  5 ATL   16837
##  6 AUS    2411
##  7 AVL     261
##  8 BDL     412
##  9 BGR     358
## 10 BHM     269
## # ... with 94 more rows

The second chunk of code gives us:

not_cancelled %>% 
  count(tailnum, wt = distance)

## # A tibble: 4,037 x 2
##    tailnum       n
##    <chr>     <dbl>
##  1 D942DN    3418.
##  2 N0EGMQ  239143.
##  3 N10156  109664.
##  4 N102UW   25722.
##  5 N103US   24619.
##  6 N104UW   24616.
##  7 N10575  139903.
##  8 N105UW   23618.
##  9 N107US   21677.
## 10 N108UW   32070.
## # ... with 4,027 more rows

Again we can avoid using count by doing a group_by() on tailnum. Since wt = distance gives the total number of miles flown, we use sum() instead:

not_cancelled %>%
  group_by(tailnum) %>%
  summarise(n = sum(distance))

## # A tibble: 4,037 x 2
##    tailnum       n
##    <chr>     <dbl>
##  1 D942DN    3418.
##  2 N0EGMQ  239143.
##  3 N10156  109664.
##  4 N102UW   25722.
##  5 N103US   24619.
##  6 N104UW   24616.
##  7 N10575  139903.
##  8 N105UW   23618.
##  9 N107US   21677.
## 10 N108UW   32070.
## # ... with 4,027 more rows
…
