R for Data Science Solution Set
…
Problem 2

What happens if you subset a tibble as if youre subsetting a list? What are the key differences between a list and a tibble?

[ returns a tibble with the referenced columns. [[ returns a single vector with no attributes.

mtcars <- tbl_df(mtcars)

# tibble with just the first vector
mtcars[1]

## # A tibble: 32 x 1
##      mpg
##    <dbl>
##  1  21.0
##  2  21.0
##  3  22.8
##  4  21.4
##  5  18.7
##  6  18.1
##  7  14.3
##  8  24.4
##  9  22.8
## 10  19.2
## # ... with 22 more rows
…
