R for Data Science Solution Set
…
How can you tell if an object is a tibble? (Hint: try printing mtcars, which is a regular data frame).

Use the is.tibble() function to determine if an object is a tibble. A tibble will also have a heading if printed to the console.

is.tibble(mtcars)

## [1] FALSE

is.tibble(diamonds)

## [1] TRUE

diamonds

## # A tibble: 53,940 x 10
##    carat cut       color clarity depth table price     x     y     z
##    <dbl> <ord>     <ord> <ord>   <dbl> <dbl> <int> <dbl> <dbl> <dbl>
##  1 0.230 Ideal     E     SI2      61.5  55.0   326  3.95  3.98  2.43
##  2 0.210 Premium   E     SI1      59.8  61.0   326  3.89  3.84  2.31
##  3 0.230 Good      E     VS1      56.9  65.0   327  4.05  4.07  2.31
##  4 0.290 Premium   I     VS2      62.4  58.0   334  4.20  4.23  2.63
##  5 0.310 Good      J     SI2      63.3  58.0   335  4.34  4.35  2.75
##  6 0.240 Very Good J     VVS2     62.8  57.0   336  3.94  3.96  2.48
##  7 0.240 Very Good I     VVS1     62.3  57.0   336  3.95  3.98  2.47
##  8 0.260 Very Good H     SI1      61.9  55.0   337  4.07  4.11  2.53
##  9 0.220 Fair      E     VS2      65.1  61.0   337  3.87  3.78  2.49
## 10 0.230 Very Good H     VS1      59.4  61.0   338  4.00  4.05  2.39
## # ... with 53,930 more rows
…
## # A tibble: 1 x 2
##     abc xyz  
##   <dbl> <chr>
## 1  1.00 a

Problem 3

If you have the name of a variable stored in an object, e.g. var <- "mpg", how can you extract the reference variable from a tibble?

Use [] to extract the variable and [[]] to extract the vector:

var <- 'mpg'
as.tibble(mtcars)[var]

## # A tibble: 32 x 1
##      mpg
##    <dbl>
##  1  21.0
##  2  21.0
##  3  22.8
##  4  21.4
##  5  18.7
##  6  18.1
##  7  14.3
##  8  24.4
##  9  22.8
## 10  19.2
## # ... with 22 more rows
…
