R for Data Science Solution Set
…
The model equation changes from y = a_0 + a_1 * xb + a_2 * xc + a_3 * xd to y = a_1 * xa + a_2 * xb + a_3 * xc + a_4 * xd. Basically, the first model replaces one level of the equation with the y-intercept. The second model has no intercept and all four levels of the discrete variable. The predictions dont change.

Problem 2

Use model_matrix() to explore the equations generated for the models I fit to sim3 and sim4. Why is * a good shorthand for interaction?

mod1 <- lm(y ~ x1 + x2, data = sim3)
mod2 <- lm(y ~ x1 * x2, data = sim3)

model_matrix(y ~ x1 * x2, data = sim3)

## # A tibble: 120 x 8
##    `(Intercept)`    x1   x2b   x2c   x2d `x1:x2b` `x1:x2c` `x1:x2d`
##            <dbl> <dbl> <dbl> <dbl> <dbl>    <dbl>    <dbl>    <dbl>
##  1             1     1     0     0     0        0        0        0
##  2             1     1     0     0     0        0        0        0
##  3             1     1     0     0     0        0        0        0
##  4             1     1     1     0     0        1        0        0
##  5             1     1     1     0     0        1        0        0
##  6             1     1     1     0     0        1        0        0
##  7             1     1     0     1     0        0        1        0
##  8             1     1     0     1     0        0        1        0
##  9             1     1     0     1     0        0        1        0
## 10             1     1     0     0     1        0        0        1
## # ... with 110 more rows
…
