R for Data Science Solution Set
…
14.4.4 Grouped matches

Problem 1

Find all words that come after a “number” like “one”, “two”, “three”, etc. Pull out the number and the word.

numbers <- "([Oo]ne|[Tt]wo|[Tt]hree|[Ff]our|[Ff]ive|[Ss]ix|[Ss]even|[Ee]ight|[Nn]ine|[Tt]en) ([^ ]+)"
tibble(sentence = sentences) %>%
  extract(
    sentence, c("number", "word"), numbers,
    remove = FALSE
  ) %>% 
  filter(!is.na(number))

## # A tibble: 46 x 3
##    sentence                                    number word   
##    <chr>                                       <chr>  <chr>  
##  1 Rice is often served in round bowls.        ten    served 
##  2 Four hours of steady work faced us.         Four   hours  
##  3 Two blue fish swam in the tank.             Two    blue   
##  4 Lift the square stone over the fence.       one    over   
##  5 The rope will bind the seven books at once. seven  books  
##  6 The two met while playing on the sand.      two    met    
##  7 There are more than two factors here.       two    factors
##  8 He lay prone and hardly moved a limb.       one    and    
##  9 Ten pins were set in order.                 Ten    pins   
## 10 Type out three lists of orders.             three  lists  
## # ... with 36 more rows
…
